57
108
277
458
638
644
698
763
895
1057
1155
1348
1351
1409
1501
1701
1868
1890
1944
1989
2086
2218
2286
2394
2525
2538
2697
2751
2948
3082
3210
3287
3319
3449
3570
3603
3647
3818
3851
3897
4064
4112
4290
4313
4453
4609
4642
4701
4736
4917
5108
5307
5483
5563
5598
5605
5625
5634
5775
5914
6025
6032
6046
6186
6245
6411
6507
6558
6740
6835
7013
7167
7209
7322
7348
7363
7405
7528
7698
7888
7990
8119
8301
8420
8504
8613
8614
8724
8808
8981
9035
9042
9225
9421
9473
9645
9709
9814
9874
10051
10173
10257
10308
10471
10498
10613
10621
10766
10929
10958
11131
11263
11349
11517
11636
11768
11867
11938
12041
12072
12104
12139
12227
12414
12434
12573
12672
12812
12960
13116
13159
13261
13459
13588
13739
13756
13762
13876
13941
14064
14151
14340
14372
14421
14558
14674
14780
14818
14855
14917
15079
15176
15376
15454
15488
15589
15601
15750
15927
16018
16147
16179
16232
16426
16478
16492
16594
16657
16678
16822
16934
17021
17116
17124
17185
17253
17395
17562
17582
17737
17743
17817
17931
18011
18075
18088
18202
18358
18442
18463
18491
18509
18621
18744
18891
18971
19129
19179
19366
19402
19464
19563
19681
19767
19853
19898
19973
20112
20167
20195
20351
20444
20561
20640
20837
20870
21002
21180
21321
21448
21491
21584
21777
21838
21860
21889
22004
22023
22184
22372
22464
22513
22635
22732
22861
22963
23151
23187
23210
23250
23259
23389
23532
23704
23837
23977
24056
24180
24298
24403
24475
24599
24612
24759
24955
25006
25114
25281
25306
25439
25524
25537
25723
25875
25972
25983
26078
26129
26278
26321
26421
26504
26577
26638
26811
26854
27019
27081
27145
27310
27391
27535
27697
27816
27828
27839
27912
27946
28035
28141
28159
28178
28284
28398
28525
28572
28677
28723
28826
28885
28942
29092
29192
29230
29369
29413
29510
29640
29668
29734
29863
29873
29981
30024
30090
30092
30233
30255
30449
30609
30781
30929
31029
31221
31319
31461
31661
31663
31741
31915
31943
32017
32119
32273
32352
32476
32601
32674
32703
32815
32904
32948
33104
33238
33362
33532
33570
33675
33751
33871
33967
34028
34191
34210
34357
34479
34562
34678
34697
34727
34877
34967
35149
35312
35497
35662
35669
35683
35757
35956
36146
36161
36196
36260
36406
36519
36671
36861
36991
37167
37183
37321
37488
37613
37663
37752
37814
37850
37919
38091
38210
38349
38481
38669
38788
38808
38989
39161
39175
39318
39437
39474
39542
39648
39667
39818
39924
39987
40124
40142
40159
40192
40270
40357
40368
40473
40540
40580
40626
40800
40899
40966
41022
41096
41144
41175
41241
41271
41464
41464
41573
41616
41628
41748
41763
41873
41978
42168
42239
42372
42438
42454
42607
42733
42775
42786
42918
43117
43214
43290
43425
43427
43620
43686
43783
43975
43997
44173
44286
44475
44606
44766
44952
45088
45151
45350
45354
45424
45513
45655
45812
45968
46130
46211
46257
46261
46384
46389
46506
46655
46678
46853
46893
46927
47119
47260
47377
47558
47685
47825
47908
47963
48063
48218
48362
48509
48551
48600
48645
48764
48769
48914
49006
49159
49249
49391
49419
49573
49708
49738
49820
49971
50011
50045
50203
50290
50375
50416
50602
50635
50682
50767
50963
50974
51022
51074
51207
51260
51297
51383
51528
51551
51715
51818
51968
51978
52041
52166
52357
52506
52677
52704
52858
52863
52940
53006
53056
53250
53391
53527
53649
53662
53674
53792
53939
54092
54131
54140
54151
54333
54333
54334
54496
54598
54795
54966
55152
55347
55523
55659
55849
55865
56004
56020
56128
56198
56358
56413
56588
56657
56813
56873
56977
57043
57082
57149
57291
57473
57592
57776
57901
57955
58002
58159
58245
58421
58423
58526
58535
58641
58815
58988
59181
59292
59333
59526
59637
59814
59897
59936
60127
60262
60427
60430
60504
60683
60743
60941
60996
61015
61141
61334
61340
61340
61349
61543
61576
61680
61715
61801
61900
61996
62172
62354
62371
62550
62613
62681
62714
62895
62923
63079
63206
63219
63323
63439
63579
63660
63748
63814
63890
64020
64151
64200
64344
64462
64574
64762
64943
64998
65013
65151
65338
65524
65638
65711
65790
65828
65947
66022
66022
66093
66233
66380
66544
66630
66795
66985
67058
67114
67309
67502
67634
67744
67765
67776
67874
67909
67937
68040
68198
68280
68454
68470
68596
68733
68800
68978
69029
69062
69251
69444
69567
69667
69770
69867
70065
70252
70274
70462
70630
70825
70974
71118
71166
71206
71300
71463
71504
71596
71745
71936
72049
72138
72142
72256
72428
72521
72599
72783
72809
72812
72984
72999
73199
73217
73373
73484
73625
73694
73884
74024
74196
74278
74406
74584
74782
74882
74972
75051
75053
75086
75201
75218
75339
75446
75613
75782
75939
76067
76169
76307
76398
76467
76510
76528
76567
76732
76862
76923
77015
77126
77156
77198
77229
77349
77358
77375
77447
77635
77728
77883
77888
78022
78187
78342
78413
78477
78591
78685
78835
78951
78986
79122
79158
79279
79311
79492
79543
79658
79840
80034
80070
80230
80386
80431
80535
80599
80753
80855
80925
81111
81287
81410
81440
81499
81644
81695
81747
81787
81973
82075
82198
82219
82270
82393
82504
82561
82713
82868
82885
82974
83022
83208
83233
83423
83506
83576
83592
83686
83718
83729
83755
83826
83989
84017
84100
84219
84273
84280
84308
84418
84440
84562
84712
84797
84935
84992
85140
85166
85300
85338
85426
85574
85611
85707
85797
85892
86030
86034
86069
86250
86412
86458
86624
86716
86873
86899
86916
87039
87044
87215
87346
87515
87622
87710
87805
88001
88139
88197
88301
88422
88622
88725
88920
89096
89119
89135
89226
89371
89457
89602
89736
89748
89910
89939
90054
90228
90240
90271
90292
90422
90547
90737
90764
90951
91005
91122
91143
91198
91396
91566
91620
91765
91929
91983
92142
92215
92318
92437
92573
92593
92638
92831
92986
93159
93176
93212
93230
93287
93449
93596
93641
93654
93821
93945
94135
94183
94259
94327
94418
94447
94500
94664
94728
94814
94880
94988
95107
95267
95370
95533
95643
95810
95966
95995
96003
96077
96216
96268
96449
96644
96710
96732
96927
96978
97178
97244
97336
97436
97494
97539
97571
97724
97810
97908
97932
98093
98100
98184
98344
98447
98615
98764
98937
99103
99287
99379
99395
99562
