135
195
392
459
581
684
718
828
910
924
1123
1286
1397
1494
1613
1791
1796
1975
2055
2155
2225
2293
2330
2484
2509
2607
2715
2895
2948
2991
3016
3102
3142
3339
3434
3567
3723
3739
3845
3941
4088
4124
4130
4272
4394
4543
4688
4843
4905
5063
5218
5364
5476
5526
5657
5808
5977
6108
6211
6376
6425
6455
6480
6494
6673
6726
6866
7059
7155
7206
7345
7410
7609
7686
7855
7968
7979
8166
8363
8421
8604
8741
8860
8954
9008
9170
9332
9456
9501
9657
9835
9893
9904
10002
10148
10302
10475
10524
10530
10660
10668
10805
10926
10955
11114
11130
11203
11373
11468
11510
11567
11683
11692
11851
11925
12044
12172
12363
12447
12459
12593
12688
12702
12860
13012
13066
13084
13223
13296
13467
13660
13860
13881
13913
14101
14301
14431
14518
14521
14681
14760
14958
15009
15044
15056
15072
15091
15119
15173
15345
15438
15545
15615
15649
15830
15980
16124
16216
16303
16483
16594
16621
16821
16887
16977
17114
17295
17463
17630
17694
17883
18033
18225
18343
18497
18645
18797
18805
18994
19101
19146
19263
19401
19493
19526
19676
19814
19861
19993
20094
20158
20187
20203
20316
20395
20557
20661
20847
21000
21134
21273
21463
21625
21636
21685
21827
21978
22157
22254
22430
22444
22567
22700
22730
22904
23091
23234
23393
23516
23564
23639
23641
23749
23753
23931
24032
24064
24209
24332
24513
24633
24665
24806
24967
25002
25182
25232
25334
25389
25513
25642
25752
25780
25808
25890
25929
25950
26131
26287
26413
26440
26580
26642
26714
26801
26930
26963
27128
27159
27172
27298
27390
27489
27594
27694
27761
27852
27945
28078
28240
28356
28362
28412
28427
28583
28713
28789
28859
28994
29135
29293
29390
29426
29476
29575
29661
29861
29986
29997
30089
30109
30295
30425
30459
30636
30737
30883
30958
31129
31130
31218
31236
31420
31616
31757
31763
31846
31855
32015
32164
32351
32542
32666
32804
32870
33031
33091
33125
33246
33247
33248
33441
33515
33597
33765
33877
34028
34169
34256
34258
34370
34428
34491
34662
34714
34833
35013
35023
35123
35273
35345
35380
35463
35496
35690
35697
35743
35772
35790
35843
35891
35990
36123
36228
36359
36528
36676
36774
36971
37002
37102
37222
37385
37398
37515
37674
37715
37786
37790
37945
37960
38093
38126
38251
38394
38522
38684
38754
38789
38831
38965
39021
39047
39205
39331
39394
39592
39688
39841
39943
40097
40246
40338
40464
40627
40744
40802
40809
40939
41041
41100
41295
41430
41461
41541
41662
41762
41799
41899
42013
42145
42337
42366
42493
42663
42774
42776
42875
43073
43234
43336
43339
43394
43523
43692
43721
43837
44026
44095
44200
44386
44585
44596
44655
44655
44717
44856
44974
45059
45194
45359
45365
45378
45458
45508
45567
45732
45827
45862
46060
46105
46197
46302
46379
46389
46473
46592
46658
46701
46716
46806
46928
47106
47131
47164
47362
47455
47635
47829
47877
47959
47997
48002
48022
48186
48296
48345
48470
48589
48753
48933
48941
48995
49195
49215
49239
49391
49402
49563
49629
49824
49874
49922
50106
50208
50262
50300
50458
50616
50713
